Assignment-3-Last.utf8
…
Test&Training Datasets

I determined the test and training data Set according to the format given in the Assignment descripton.

set.seed(503)
diamonds_test <- diamonds %>% mutate(diamond_id = row_number()) %>% 
    group_by(cut, color, clarity) %>% sample_frac(0.2) %>% ungroup()

diamonds_train <- anti_join(diamonds %>% mutate(diamond_id = row_number()), 
    diamonds_test, by = "diamond_id")

diamonds_train

## # A tibble: 43,143 x 11
##    carat cut       color clarity depth table price     x     y     z diamond_id
##    <dbl> <ord>     <ord> <ord>   <dbl> <dbl> <int> <dbl> <dbl> <dbl>      <int>
##  1 0.21  Premium   E     SI1      59.8    61   326  3.89  3.84  2.31          2
##  2 0.23  Good      E     VS1      56.9    65   327  4.05  4.07  2.31          3
##  3 0.290 Premium   I     VS2      62.4    58   334  4.2   4.23  2.63          4
##  4 0.31  Good      J     SI2      63.3    58   335  4.34  4.35  2.75          5
##  5 0.24  Very Good I     VVS1     62.3    57   336  3.95  3.98  2.47          7
##  6 0.26  Very Good H     SI1      61.9    55   337  4.07  4.11  2.53          8
##  7 0.22  Fair      E     VS2      65.1    61   337  3.87  3.78  2.49          9
##  8 0.23  Very Good H     VS1      59.4    61   338  4     4.05  2.39         10
##  9 0.3   Good      J     SI1      64      55   339  4.25  4.28  2.73         11
## 10 0.23  Ideal     J     VS1      62.8    56   340  3.93  3.9   2.46         12
## # ... with 43,133 more rows
…
